<?xml version="1.0" encoding="UTF-8" standalone="no"?>
<!-- Created with Inkscape (http://www.inkscape.org/) -->

<svg
   width="200"
   height="200"
   viewBox="-2.7755576e-17 0 52.916669 52.916665"
   version="1.1"
   id="svg5"
   inkscape:version="1.1.2 (0a00cf5339, 2022-02-04)"
   sodipodi:docname="basket.svg"
   inkscape:export-filename="/home/hendrikpreuss/Documents/uwrhorn/htdocs/assets/img/basket160.png"
   inkscape:export-xdpi="85.333336"
   inkscape:export-ydpi="85.333336"
   xmlns:inkscape="http://www.inkscape.org/namespaces/inkscape"
   xmlns:sodipodi="http://sodipodi.sourceforge.net/DTD/sodipodi-0.dtd"
   xmlns="http://www.w3.org/2000/svg"
   xmlns:svg="http://www.w3.org/2000/svg">
  <sodipodi:namedview
     id="namedview7"
     pagecolor="#ffffff"
     bordercolor="#666666"
     borderopacity="1.0"
     inkscape:pageshadow="2"
     inkscape:pageopacity="0.0"
     inkscape:pagecheckerboard="true"
     inkscape:document-units="mm"
     showgrid="false"
     inkscape:object-paths="true"
     inkscape:snap-intersection-paths="true"
     inkscape:snap-smooth-nodes="true"
     inkscape:snap-midpoints="true"
     inkscape:zoom="2.3"
     inkscape:cx="81.956522"
     inkscape:cy="172.17391"
     inkscape:window-width="1920"
     inkscape:window-height="1043"
     inkscape:window-x="0"
     inkscape:window-y="0"
     inkscape:window-maximized="1"
     inkscape:current-layer="layer1"
     fit-margin-top="0"
     fit-margin-left="0"
     fit-margin-right="0"
     fit-margin-bottom="0"
     units="px"
     viewbox-x="0"
     viewbox-width="47.31735"
     showborder="true"
     inkscape:showpageshadow="false"
     borderlayer="false"
     inkscape:snap-nodes="false" />
  <defs
     id="defs2" />
  <g
     inkscape:label="Layer 1"
     inkscape:groupmode="layer"
     id="layer1"
     transform="translate(-71.867943,-17.679703)">
    <path
       style="fill:none;stroke:#ffffff;stroke-width:3.175;stroke-linecap:round;stroke-linejoin:miter;stroke-miterlimit:4;stroke-dasharray:none;stroke-opacity:1"
       d="M 81.841728,68.40399 H 114.88178"
       id="path859" />
    <path
       style="fill:none;stroke:#ffffff;stroke-width:4.56968;stroke-linecap:round;stroke-linejoin:miter;stroke-miterlimit:4;stroke-dasharray:none;stroke-opacity:1"
       d="m 75.44416,26.607717 h 45.8352"
       id="path859-6" />
    <path
       style="fill:none;stroke:#ffffff;stroke-width:3.175;stroke-linecap:butt;stroke-linejoin:miter;stroke-miterlimit:4;stroke-dasharray:none;stroke-opacity:1"
       d="m 110.38414,68.40399 9.86628,-41.843074"
       id="path861-3"
       sodipodi:nodetypes="cc" />
    <path
       style="fill:none;stroke:#ffffff;stroke-width:3.175;stroke-linecap:butt;stroke-linejoin:miter;stroke-miterlimit:4;stroke-dasharray:none;stroke-opacity:1"
       d="M 86.339367,68.450791 76.473087,26.607717"
       id="path861-3-5"
       sodipodi:nodetypes="cc" />
    <g
       id="g1657"
       transform="translate(5.7424574,16.698547)"
       style="fill:none;stroke:#ffffff;stroke-width:3.175;stroke-miterlimit:4;stroke-dasharray:none;stroke-opacity:1">
      <g
         id="g2852"
         transform="translate(-0.18535962)">
        <path
           style="fill:none;stroke:#ffffff;stroke-width:3.175;stroke-linecap:butt;stroke-linejoin:miter;stroke-miterlimit:4;stroke-dasharray:none;stroke-opacity:1"
           d="M 86.021228,51.705443 82.033939,9.9091692"
           id="path1394" />
        <path
           style="fill:none;stroke:#ffffff;stroke-width:3.175;stroke-linecap:butt;stroke-linejoin:miter;stroke-miterlimit:4;stroke-dasharray:none;stroke-opacity:1"
           d="M 99.58809,51.705443 103.57538,9.909169"
           id="path1394-7" />
        <path
           style="fill:none;stroke:#ffffff;stroke-width:3.175;stroke-linecap:butt;stroke-linejoin:miter;stroke-miterlimit:4;stroke-dasharray:none;stroke-opacity:1"
           d="M 92.804659,9.9091691 V 51.705443"
           id="path1572" />
      </g>
    </g>
  </g>
</svg>
